uP_tb.vcd
$date
	Sun Nov 22 16:45:31 2020
$end
$version
	Icarus Verilog
$end
$timescale
	1ps
$end
$scope module testbench $end
$var wire 4 ! data_bus [3:0] $end
$var wire 1 " z_flag $end
$var wire 8 # program_byte [7:0] $end
$var wire 1 $ phase $end
$var wire 4 % oprnd [3:0] $end
$var wire 4 & instr [3:0] $end
$var wire 1 ' c_flag $end
$var wire 12 ( address_RAM [11:0] $end
$var wire 4 ) accu [3:0] $end
$var wire 12 * PC [11:0] $end
$var wire 4 + FF_out [3:0] $end
$var reg 1 , clock $end
$var reg 4 - pushbuttons [3:0] $end
$var reg 1 . reset $end
$var integer 32 / immediateDelay [31:0] $end
$var integer 32 0 jumpDelay [31:0] $end
$var integer 32 1 memoryDelay [31:0] $end
$var integer 32 2 nota [31:0] $end
$scope module uPmodule $end
$var wire 1 , clock $end
$var wire 4 3 data_bus [3:0] $end
$var wire 4 4 pushbuttons [3:0] $end
$var wire 1 . reset $end
$var wire 1 " z_flag $end
$var wire 8 5 program_byte [7:0] $end
$var wire 1 $ phase $end
$var wire 4 6 oprnd [3:0] $end
$var wire 4 7 instr [3:0] $end
$var wire 13 8 control_signals [12:0] $end
$var wire 1 ' c_flag $end
$var wire 12 9 address_RAM [11:0] $end
$var wire 4 : accu [3:0] $end
$var wire 1 ; Z $end
$var wire 12 < PC [11:0] $end
$var wire 4 = FF_out [3:0] $end
$var wire 1 > C $end
$var wire 4 ? ALU_out [3:0] $end
$scope module ALU $end
$var wire 4 @ B [3:0] $end
$var wire 3 A F [2:0] $end
$var wire 4 B A [3:0] $end
$var reg 1 > C $end
$var reg 4 C Y [3:0] $end
$var reg 5 D Y1 [4:0] $end
$var reg 1 ; Z $end
$upscope $end
$scope module Accumulator $end
$var wire 1 , clk $end
$var wire 4 E d [3:0] $end
$var wire 1 F enable $end
$var wire 1 . rst $end
$var reg 4 G accu [3:0] $end
$upscope $end
$scope module Bus_Driver1 $end
$var wire 4 H data_bus [3:0] $end
$var wire 1 I enable $end
$var wire 4 J oprnd [3:0] $end
$upscope $end
$scope module Bus_Driver2 $end
$var wire 4 K data_bus [3:0] $end
$var wire 1 L enable $end
$var wire 4 M oprnd [3:0] $end
$upscope $end
$scope module Decode $end
$var wire 7 N Address [6:0] $end
$var reg 13 O Y [12:0] $end
$upscope $end
$scope module FETCH $end
$var wire 1 , clk $end
$var wire 1 P enable $end
$var wire 1 . rst $end
$var wire 8 Q program_byte [7:0] $end
$var wire 4 R oprnd [3:0] $end
$var wire 4 S instr [3:0] $end
$scope module G1 $end
$var wire 1 , clock $end
$var wire 1 T d $end
$var wire 1 P enable $end
$var wire 1 . reset $end
$var reg 1 U Y $end
$upscope $end
$scope module G2 $end
$var wire 1 , clock $end
$var wire 1 V d $end
$var wire 1 P enable $end
$var wire 1 . reset $end
$var reg 1 W Y $end
$upscope $end
$scope module G3 $end
$var wire 1 , clock $end
$var wire 1 X d $end
$var wire 1 P enable $end
$var wire 1 . reset $end
$var reg 1 Y Y $end
$upscope $end
$scope module G4 $end
$var wire 1 , clock $end
$var wire 1 Z d $end
$var wire 1 P enable $end
$var wire 1 . reset $end
$var reg 1 [ Y $end
$upscope $end
$scope module G5 $end
$var wire 1 , clock $end
$var wire 1 \ d $end
$var wire 1 P enable $end
$var wire 1 . reset $end
$var reg 1 ] Y $end
$upscope $end
$scope module G6 $end
$var wire 1 , clock $end
$var wire 1 ^ d $end
$var wire 1 P enable $end
$var wire 1 . reset $end
$var reg 1 _ Y $end
$upscope $end
$scope module G7 $end
$var wire 1 , clock $end
$var wire 1 ` d $end
$var wire 1 P enable $end
$var wire 1 . reset $end
$var reg 1 a Y $end
$upscope $end
$scope module G8 $end
$var wire 1 , clock $end
$var wire 1 b d $end
$var wire 1 P enable $end
$var wire 1 . reset $end
$var reg 1 c Y $end
$upscope $end
$upscope $end
$scope module Flags $end
$var wire 1 > C $end
$var wire 1 ; Z $end
$var wire 1 , clock $end
$var wire 1 d enable $end
$var wire 1 . reset $end
$var wire 1 " z_flag $end
$var wire 1 ' c_flag $end
$scope module G1 $end
$var wire 1 , clock $end
$var wire 1 > d $end
$var wire 1 d enable $end
$var wire 1 . reset $end
$var reg 1 ' Y $end
$upscope $end
$scope module G2 $end
$var wire 1 , clock $end
$var wire 1 ; d $end
$var wire 1 d enable $end
$var wire 1 . reset $end
$var reg 1 " Y $end
$upscope $end
$upscope $end
$scope module In $end
$var wire 4 e data_bus [3:0] $end
$var wire 1 f enable $end
$var wire 4 g oprnd [3:0] $end
$upscope $end
$scope module Out $end
$var wire 1 , clock $end
$var wire 4 h d [3:0] $end
$var wire 1 i enable $end
$var wire 1 . reset $end
$var wire 4 j FF_out [3:0] $end
$scope module G1 $end
$var wire 1 , clock $end
$var wire 1 k d $end
$var wire 1 i enable $end
$var wire 1 . reset $end
$var reg 1 l Y $end
$upscope $end
$scope module G2 $end
$var wire 1 , clock $end
$var wire 1 m d $end
$var wire 1 i enable $end
$var wire 1 . reset $end
$var reg 1 n Y $end
$upscope $end
$scope module G3 $end
$var wire 1 , clock $end
$var wire 1 o d $end
$var wire 1 i enable $end
$var wire 1 . reset $end
$var reg 1 p Y $end
$upscope $end
$scope module G4 $end
$var wire 1 , clock $end
$var wire 1 q d $end
$var wire 1 i enable $end
$var wire 1 . reset $end
$var reg 1 r Y $end
$upscope $end
$upscope $end
$scope module Phase $end
$var wire 1 , clock $end
$var wire 1 s enable $end
$var wire 1 . reset $end
$var wire 1 $ phase $end
$scope module G1 $end
$var wire 1 , clock $end
$var wire 1 t d $end
$var wire 1 s enable $end
$var wire 1 . reset $end
$var reg 1 $ Y $end
$upscope $end
$upscope $end
$scope module RAM $end
$var wire 12 u address_RAM [11:0] $end
$var wire 4 v data [3:0] $end
$var wire 1 w enable $end
$var wire 1 x read $end
$var wire 1 y write $end
$var reg 4 z data_out [3:0] $end
$upscope $end
$scope module counter $end
$var wire 12 { Ld [11:0] $end
$var wire 1 | Load $end
$var wire 1 , clk $end
$var wire 1 } enable $end
$var wire 1 . rst $end
$var reg 12 ~ PC [11:0] $end
$upscope $end
$scope module program_ROM $end
$var wire 12 !" PC [11:0] $end
$var wire 8 "" program_byte [7:0] $end
$upscope $end
$upscope $end
$upscope $end
$enddefinitions $end
#0
$dumpvars
bx ""
bx !"
bx ~
x}
x|
bx {
bx z
xy
xx
xw
bx v
bx u
xt
1s
xr
xq
xp
xo
xn
xm
xl
xk
bx j
xi
bx h
b110 g
xf
bx e
xd
xc
xb
xa
x`
x_
x^
x]
x\
x[
xZ
xY
xX
xW
xV
xU
xT
bx S
bx R
bx Q
xP
bx O
bx N
bx M
xL
bx K
bx J
xI
bx H
bx G
xF
bx E
bx D
bx C
bx B
bx A
bx @
bx ?
x>
bx =
bx <
x;
bx :
bx 9
bx 8
bx 7
bx 6
bx 5
b110 4
bx 3
b0 2
b100010100 1
b1010010000 0
b10000 /
0.
b110 -
0,
bx +
bx *
bx )
bx (
x'
bx &
bx %
x$
bx #
x"
bx !
$end
#2
0k
0m
0o
0q
b0 !
b0 3
b0 @
b0 H
b0 K
b0 e
b0 h
b0 v
0f
0i
0x
0y
0w
0d
1L
b0 A
0F
0I
0|
1}
1;
0>
b0 ?
b0 C
b0 E
b0 M
b0 D
1b
1`
1^
1\
0Z
0X
1V
0T
1t
1P
b1000000001000 8
b1000000001000 O
b0 )
b0 :
b0 B
b0 G
b1001111 #
b1001111 5
b1001111 Q
b1001111 ""
b0 *
b0 <
b0 ~
b0 !"
0U
0W
0Y
b0 &
b0 7
b0 S
0[
0]
0_
0a
b1001111 (
b1001111 9
b1001111 u
b1001111 {
b0 %
b0 6
b0 J
b0 R
0c
0$
0'
b0 N
0"
0l
0n
0p
b0 +
b0 =
b0 j
0r
1.
#3
0.
#5
1k
1m
1o
1q
0;
b1111 ?
b1111 C
b1111 E
b1111 M
b1111 D
b1111 !
b1111 3
b1111 @
b1111 H
b1111 K
b1111 e
b1111 h
b1111 v
1d
0L
b10 A
1F
1I
0}
0t
0P
b11010000010 8
b11010000010 O
1Z
1T
1$
1c
1a
1_
b1111 %
b1111 6
b1111 J
b1111 R
1]
b100001 N
b100 &
b100 7
b100 S
1W
b111111011111 (
b111111011111 9
b111111011111 u
b111111011111 {
b11011111 #
b11011111 5
b11011111 Q
b11011111 ""
b1 *
b1 <
b1 ~
b1 !"
1,
#10
0,
#15
b1111 !
b1111 3
b1111 @
b1111 H
b1111 K
b1111 e
b1111 h
b1111 v
0d
1L
b0 A
0F
0I
1}
1t
b1000000001000 8
b1000000001000 O
1P
b1111 )
b1111 :
b1111 B
b1111 G
b100000 N
0$
1,
#16
b1000110 2
#20
0,
#25
1i
0}
0t
0P
b1001 8
b1001 O
0`
0^
0\
0T
1$
1[
b1101001 N
b1101 &
b1101 7
b1101 S
1U
b111101010001 (
b111101010001 9
b111101010001 u
b111101010001 {
b1010001 #
b1010001 5
b1010001 Q
b1010001 ""
b10 *
b10 <
b10 ~
b10 !"
1,
#30
0,
#35
0i
1}
1t
b1000000001000 8
b1000000001000 O
1P
b1101000 N
0$
1l
1n
1p
b1111 +
b1111 =
b1111 j
1r
1,
#36
b1100111 2
#40
0,
#45
b110 ?
b110 C
b110 E
b110 M
b110 D
0k
0q
b110 !
b110 3
b110 @
b110 H
b110 K
b110 e
b110 h
b110 v
1f
1d
0L
b10 A
1F
0}
0t
0P
b11010000100 8
b11010000100 O
0b
0Z
1$
0a
0_
b1 %
b1 6
b1 J
b1 R
0]
b101001 N
b101 &
b101 7
b101 S
0U
b101000000 (
b101000000 9
b101000000 u
b101000000 {
b1000000 #
b1000000 5
b1000000 Q
b1000000 ""
b11 *
b11 <
b11 ~
b11 !"
1,
#50
0,
#55
0f
0d
1L
b0 A
0F
1}
1t
b1000000001000 8
b1000000001000 O
1P
b110 )
b110 :
b110 B
b110 G
b101000 N
0$
1,
#56
b10001000 2
#60
0,
#65
0m
0o
1;
b0 ?
b0 C
b0 E
b0 M
b0 D
b0 !
b0 3
b0 @
b0 H
b0 K
b0 e
b0 h
b0 v
1d
0L
b10 A
1F
1I
0}
0t
0P
b11010000010 8
b11010000010 O
1b
1`
1^
1\
1$
b0 %
b0 6
b0 J
b0 R
0c
b100001 N
b100 &
b100 7
b100 S
0[
b1001111 (
b1001111 9
b1001111 u
b1001111 {
b1001111 #
b1001111 5
b1001111 Q
b1001111 ""
b100 *
b100 <
b100 ~
b100 !"
1,
#70
0,
#75
b0 !
b0 3
b0 @
b0 H
b0 K
b0 e
b0 h
b0 v
0d
1L
b0 A
0F
0I
1}
1t
1P
b1000000001000 8
b1000000001000 O
b0 )
b0 :
b0 B
b0 G
0$
b100010 N
1"
1,
#80
0,
#85
1k
1m
1o
1q
0;
b1111 ?
b1111 C
b1111 E
b1111 M
b1111 D
b1111 !
b1111 3
b1111 @
b1111 H
b1111 K
b1111 e
b1111 h
b1111 v
1d
0L
b10 A
1F
1I
0}
0t
b11010000010 8
b11010000010 O
0P
0b
0^
1X
0V
1T
b100011 N
1$
1c
1a
1_
b1111 %
b1111 6
b1111 J
b1111 R
1]
b111110101010 (
b111110101010 9
b111110101010 u
b111110101010 {
b10101010 #
b10101010 5
b10101010 Q
b10101010 ""
b101 *
b101 <
b101 ~
b101 !"
1,
#90
0,
#95
b1111 !
b1111 3
b1111 @
b1111 H
b1111 K
b1111 e
b1111 h
b1111 v
0d
1L
b0 A
0F
0I
1}
1t
1P
b1000000001000 8
b1000000001000 O
b1111 )
b1111 :
b1111 B
b1111 G
0$
b100000 N
0"
1,
#100
0,
#105
0m
0q
0;
1>
b1001 ?
b1001 C
b1001 E
b1001 M
b11001 D
b1010 !
b1010 3
b1010 @
b1010 H
b1010 K
b1010 e
b1010 h
b1010 v
1d
0L
b11 A
1F
1I
0}
0t
0P
b11011000010 8
b11011000010 O
0`
0T
1$
0c
b1010 %
b1010 6
b1010 J
b1010 R
0_
1Y
0W
b1010001 N
b1010 &
b1010 7
b1010 S
1U
b101000101000 (
b101000101000 9
b101000101000 u
b101000101000 {
b101000 #
b101000 5
b101000 Q
b101000 ""
b110 *
b110 <
b110 ~
b110 !"
1,
#110
0,
#115
0o
1q
0>
b1001 !
b1001 3
b1001 @
b1001 H
b1001 K
b1001 e
b1001 h
b1001 v
0d
1L
b0 A
0F
0I
1}
b1001 ?
b1001 C
b1001 E
b1001 M
b1001 D
1t
1P
b1000000001000 8
b1000000001000 O
b1001 )
b1001 :
b1001 B
b1001 G
0$
b1010100 N
1'
1,
#116
b10101001 2
#120
0,
#125
0q
0;
0>
b1 ?
b1 C
b1 E
b1 M
b1 D
b1000 !
b1000 3
b1000 @
b1000 H
b1000 K
b1000 e
b1000 h
b1000 v
1d
0L
b1 A
1I
0}
0t
0P
b1001000010 8
b1001000010 O
1`
0X
1V
1$
b1000 %
b1000 6
b1000 J
b1000 R
0a
b10101 N
b10 &
b10 7
b10 S
0U
b100001001010 (
b100001001010 9
b100001001010 u
b100001001010 {
b1001010 #
b1001010 5
b1001010 Q
b1001010 ""
b111 *
b111 <
b111 ~
b111 !"
1,
#130
0,
#135
1q
b1001 ?
b1001 C
b1001 E
b1001 M
b1001 D
b1001 !
b1001 3
b1001 @
b1001 H
b1001 K
b1001 e
b1001 h
b1001 v
0d
1L
b0 A
0I
1}
1t
1P
b1000000001000 8
b1000000001000 O
0$
b10000 N
0'
1,
#136
b11001010 2
#140
0,
#145
1o
0q
b1010 ?
b1010 C
b1010 E
b1010 M
b1010 D
b1010 !
b1010 3
b1010 @
b1010 H
b1010 K
b1010 e
b1010 h
b1010 v
1d
0L
b10 A
1F
1I
0}
0t
0P
b11010000010 8
b11010000010 O
0`
1^
1X
0V
1$
b1010 %
b1010 6
b1010 J
b1010 R
1a
0Y
b100001 N
b100 &
b100 7
b100 S
1W
b101000101100 (
b101000101100 9
b101000101100 u
b101000101100 {
b101100 #
b101100 5
b101100 Q
b101100 ""
b1000 *
b1000 <
b1000 ~
b1000 !"
1,
#150
0,
#155
b1010 !
b1010 3
b1010 @
b1010 H
b1010 K
b1010 e
b1010 h
b1010 v
0d
1L
b0 A
0F
0I
1}
1t
b1000000001000 8
b1000000001000 O
1P
b1010 )
b1010 :
b1010 B
b1010 G
b100000 N
0$
1,
#160
0,
#165
1m
0o
0;
1>
b1110 ?
b1110 C
b1110 E
b1110 M
b11110 D
b1100 !
b1100 3
b1100 @
b1100 H
b1100 K
b1100 e
b1100 h
b1100 v
1d
0L
b1 A
1I
0}
0t
0P
b1001000010 8
b1001000010 O
1b
0^
0\
1T
1$
0a
b1100 %
b1100 6
b1100 J
b1100 R
1_
1Y
b10001 N
b10 &
b10 7
b10 S
0W
b110010100001 (
b110010100001 9
b110010100001 u
b110010100001 {
b10100001 #
b10100001 5
b10100001 Q
b10100001 ""
b1001 *
b1001 <
b1001 ~
b1001 !"
1,
#170
0,
#175
0m
1o
0>
b1010 ?
b1010 C
b1010 E
b1010 M
b1010 D
b1010 !
b1010 3
b1010 @
b1010 H
b1010 K
b1010 e
b1010 h
b1010 v
0d
1L
b0 A
0I
1}
1t
1P
b1000000001000 8
b1000000001000 O
0$
b10100 N
1'
1,
#176
b11101011 2
#180
0,
#185
0k
0o
1q
0;
0>
b1011 ?
b1011 C
b1011 E
b1011 M
b1011 D
b1 !
b1 3
b1 @
b1 H
b1 K
b1 e
b1 h
b1 v
1d
0L
b11 A
1F
1I
0}
0t
0P
b11011000010 8
b11011000010 O
1`
1\
1V
1$
1c
0_
b1 %
b1 6
b1 J
b1 R
0]
b1010101 N
b1010 &
b1010 7
b1010 S
1U
b111101011 (
b111101011 9
b111101011 u
b111101011 {
b11101011 #
b11101011 5
b11101011 Q
b11101011 ""
b1010 *
b1010 <
b1010 ~
b1010 !"
1,
#190
0,
#195
1k
1o
b1011 !
b1011 3
b1011 @
b1011 H
b1011 K
b1011 e
b1011 h
b1011 v
0d
1L
b0 A
0F
0I
1}
b1011 ?
b1011 C
b1011 E
b1011 M
b1011 D
1t
1P
b1000000001000 8
b1000000001000 O
b1011 )
b1011 :
b1011 B
b1011 G
0$
b1010000 N
0'
1,
#196
b100001100 2
#200
0,
#205
b100 ?
b100 C
b100 E
b100 M
b100 D
1d
0L
b100 A
1F
1I
0}
0t
0P
b11100000010 8
b11100000010 O
0b
0`
0\
1Z
0X
1$
1a
b1011 %
b1011 6
b1011 J
b1011 R
1]
b1110001 N
b1110 &
b1110 7
b1110 S
1W
b101111010000 (
b101111010000 9
b101111010000 u
b101111010000 {
b11010000 #
b11010000 5
b11010000 Q
b11010000 ""
b1011 *
b1011 <
b1011 ~
b1011 !"
1,
#210
0,
#215
0k
1m
0o
0q
b100 !
b100 3
b100 @
b100 H
b100 K
b100 e
b100 h
b100 v
0d
1L
b0 A
0F
0I
1}
b100 ?
b100 C
b100 E
b100 M
b100 D
1t
b1000000001000 8
b1000000001000 O
1P
b100 )
b100 :
b100 B
b100 G
b1110000 N
0$
1,
#216
b101001110 2
#220
0,
#225
1i
0}
0t
0P
b1001 8
b1001 O
0T
1$
0c
0a
b0 %
b0 6
b0 J
b0 R
0]
1[
b1101001 N
b1101 &
b1101 7
b1101 S
0Y
b1010000 (
b1010000 9
b1010000 u
b1010000 {
b1010000 #
b1010000 5
b1010000 Q
b1010000 ""
b1100 *
b1100 <
b1100 ~
b1100 !"
1,
#230
0,
#235
0i
1}
1t
b1000000001000 8
b1000000001000 O
1P
b1101000 N
0$
0l
0p
b100 +
b100 =
b100 j
0r
1,
#236
b1110 -
b1110 4
b1110 g
b101101111 2
#240
0,
#245
b1110 ?
b1110 C
b1110 E
b1110 M
b1110 D
1k
1o
b1110 !
b1110 3
b1110 @
b1110 H
b1110 K
b1110 e
b1110 h
b1110 v
1f
1d
0L
b10 A
1F
0}
0t
0P
b11010000100 8
b11010000100 O
1X
1$
b101001 N
b101 &
b101 7
b101 S
0U
b1110000 (
b1110000 9
b1110000 u
b1110000 {
b1110000 #
b1110000 5
b1110000 Q
b1110000 ""
b1101 *
b1101 <
b1101 ~
b1101 !"
1,
#250
0,
#255
0f
0d
1L
b0 A
0F
1}
1t
b1000000001000 8
b1000000001000 O
1P
b1110 )
b1110 :
b1110 B
b1110 G
b101000 N
0$
1,
#256
b110010000 2
#260
0,
#265
1x
1y
1w
0t
0P
b1000000111000 8
b1000000111000 O
0Z
0X
0V
1$
b111001 N
b111 &
b111 7
b111 S
1Y
b0 (
b0 9
b0 u
b0 {
b0 #
b0 5
b0 Q
b0 ""
b1110 *
b1110 <
b1110 ~
b1110 !"
1,
#270
0,
#275
0x
0y
0w
1b
1`
1^
1\
1V
1t
b1000000001000 8
b1000000001000 O
1P
b1001111 (
b1001111 9
b1001111 u
b1001111 {
b1001111 #
b1001111 5
b1001111 Q
b1001111 ""
b1111 *
b1111 <
b1111 ~
b1111 !"
b111000 N
0$
1,
#280
0,
#285
1q
b1111 ?
b1111 C
b1111 E
b1111 M
b1111 D
b1111 !
b1111 3
b1111 @
b1111 H
b1111 K
b1111 e
b1111 h
b1111 v
1d
0L
b10 A
1F
1I
0}
0t
0P
b11010000010 8
b11010000010 O
0`
0^
0\
1Z
1X
1$
1c
1a
1_
b1111 %
b1111 6
b1111 J
b1111 R
1]
0[
b100001 N
b100 &
b100 7
b100 S
0Y
b111101110001 (
b111101110001 9
b111101110001 u
b111101110001 {
b1110001 #
b1110001 5
b1110001 Q
b1110001 ""
b10000 *
b10000 <
b10000 ~
b10000 !"
1,
#290
0,
#295
b1111 !
b1111 3
b1111 @
b1111 H
b1111 K
b1111 e
b1111 h
b1111 v
0d
1L
b0 A
0F
0I
1}
1t
b1000000001000 8
b1000000001000 O
1P
b1111 )
b1111 :
b1111 B
b1111 G
b100000 N
0$
1,
#300
0,
#305
1x
1y
1w
0t
0P
b1000000111000 8
b1000000111000 O
0X
0V
1$
0a
0_
b1 %
b1 6
b1 J
b1 R
0]
1[
b111001 N
b111 &
b111 7
b111 S
1Y
b100010001 (
b100010001 9
b100010001 u
b100010001 {
b10001 #
b10001 5
b10001 Q
b10001 ""
b10001 *
b10001 <
b10001 ~
b10001 !"
1,
#310
0,
#315
0x
0y
0w
0b
1`
1\
0Z
1V
1t
b1000000001000 8
b1000000001000 O
1P
b101001010 (
b101001010 9
b101001010 u
b101001010 {
b1001010 #
b1001010 5
b1001010 Q
b1001010 ""
b10010 *
b10010 <
b10010 ~
b10010 !"
b111000 N
0$
1,
#320
0,
#325
0m
0q
b1010 ?
b1010 C
b1010 E
b1010 M
b1010 D
b1010 !
b1010 3
b1010 @
b1010 H
b1010 K
b1010 e
b1010 h
b1010 v
1d
0L
b10 A
1F
1I
0}
0t
0P
b11010000010 8
b11010000010 O
0\
1Z
1X
1$
0c
1a
b1010 %
b1010 6
b1010 J
b1010 R
1]
0[
b100001 N
b100 &
b100 7
b100 S
0Y
b101001110010 (
b101001110010 9
b101001110010 u
b101001110010 {
b1110010 #
b1110010 5
b1110010 Q
b1110010 ""
b10011 *
b10011 <
b10011 ~
b10011 !"
1,
#330
0,
#335
b1010 !
b1010 3
b1010 @
b1010 H
b1010 K
b1010 e
b1010 h
b1010 v
0d
1L
b0 A
0F
0I
1}
1t
b1000000001000 8
b1000000001000 O
1P
b1010 )
b1010 :
b1010 B
b1010 G
b100000 N
0$
1,
#340
0,
#345
1x
1y
1w
0t
0P
b1000000111000 8
b1000000111000 O
0Z
0V
1$
b10 %
b10 6
b10 J
b10 R
0]
1[
b111001 N
b111 &
b111 7
b111 S
1Y
b1000100010 (
b1000100010 9
b1000100010 u
b1000100010 {
b100010 #
b100010 5
b100010 Q
b100010 ""
b10100 *
b10100 <
b10100 ~
b10100 !"
1,
#350
0,
#355
0x
0y
0w
1b
0`
0X
1V
1t
b1000000001000 8
b1000000001000 O
1P
b1001000001 (
b1001000001 9
b1001000001 u
b1001000001 {
b1000001 #
b1000001 5
b1000001 Q
b1000001 ""
b10101 *
b10101 <
b10101 ~
b10101 !"
b111000 N
0$
1,
#360
0,
#365
0k
0o
1q
0;
b1 ?
b1 C
b1 E
b1 M
b1 D
b1 !
b1 3
b1 @
b1 H
b1 K
b1 e
b1 h
b1 v
1d
0L
b10 A
1F
1I
0}
0t
0P
b11010000010 8
b11010000010 O
1`
1Z
1X
1$
1c
b1 %
b1 6
b1 J
b1 R
0a
0[
b100001 N
b100 &
b100 7
b100 S
0Y
b101110011 (
b101110011 9
b101110011 u
b101110011 {
b1110011 #
b1110011 5
b1110011 Q
b1110011 ""
b10110 *
b10110 <
b10110 ~
b10110 !"
1,
#370
0,
#375
b1 !
b1 3
b1 @
b1 H
b1 K
b1 e
b1 h
b1 v
0d
1L
b0 A
0F
0I
1}
1t
b1000000001000 8
b1000000001000 O
1P
b1 )
b1 :
b1 B
b1 G
b100000 N
0$
1,
#380
0,
#385
1x
1y
1w
0t
0P
b1000000111000 8
b1000000111000 O
0V
1$
b11 %
b11 6
b11 J
b11 R
1a
1[
b111001 N
b111 &
b111 7
b111 S
1Y
b1100110011 (
b1100110011 9
b1100110011 u
b1100110011 {
b110011 #
b110011 5
b110011 Q
b110011 ""
b10111 *
b10111 <
b10111 ~
b10111 !"
1,
#390
0,
#395
0x
0y
0w
0b
0`
0Z
1V
1t
b1000000001000 8
b1000000001000 O
1P
b1101100000 (
b1101100000 9
b1101100000 u
b1101100000 {
b1100000 #
b1100000 5
b1100000 Q
b1100000 ""
b11000 *
b11000 <
b11000 ~
b11000 !"
b111000 N
0$
1,
#400
0,
#405
0;
b1110 ?
b1110 C
b1110 E
b1110 M
b1110 D
1k
1m
1o
0q
b1110 z
b1110 !
b1110 3
b1110 @
b1110 H
b1110 K
b1110 e
b1110 h
b1110 v
1x
1w
1d
0L
b10 A
1F
0t
0P
b1011010100000 8
b1011010100000 O
0X
0V
1$
0c
b0 %
b0 6
b0 J
b0 R
0a
b110001 N
b110 &
b110 7
b110 S
0[
b0 (
b0 9
b0 u
b0 {
b0 #
b0 5
b0 Q
b0 ""
b11001 *
b11001 <
b11001 ~
b11001 !"
1,
#410
0,
#415
1k
1m
1o
0q
b1110 !
b1110 3
b1110 @
b1110 H
b1110 K
b1110 e
b1110 h
b1110 v
0x
0w
0d
1L
b0 A
0F
1b
1X
1V
bx z
1t
b1000000001000 8
b1000000001000 O
1P
b1110 )
b1110 :
b1110 B
b1110 G
b1100001 (
b1100001 9
b1100001 u
b1100001 {
b1100001 #
b1100001 5
b1100001 Q
b1100001 ""
b11010 *
b11010 <
b11010 ~
b11010 !"
b110000 N
0$
1,
#420
0,
#425
0;
b1111 ?
b1111 C
b1111 E
b1111 M
b1111 D
1k
1m
1o
1q
b1111 z
b1111 !
b1111 3
b1111 @
b1111 H
b1111 K
b1111 e
b1111 h
b1111 v
1x
1w
1d
0L
b10 A
1F
0t
b1011010100000 8
b1011010100000 O
0P
1Z
0X
0V
b110001 N
1$
b1 %
b1 6
b1 J
b1 R
1c
b100010001 (
b100010001 9
b100010001 u
b100010001 {
b10001 #
b10001 5
b10001 Q
b10001 ""
b11011 *
b11011 <
b11011 ~
b11011 !"
1,
#430
0,
#435
1k
1m
1o
1q
b1111 !
b1111 3
b1111 @
b1111 H
b1111 K
b1111 e
b1111 h
b1111 v
0x
0w
0d
1L
b0 A
0F
0b
1`
0Z
1X
1V
bx z
1t
b1000000001000 8
b1000000001000 O
1P
b1111 )
b1111 :
b1111 B
b1111 G
b101100010 (
b101100010 9
b101100010 u
b101100010 {
b1100010 #
b1100010 5
b1100010 Q
b1100010 ""
b11100 *
b11100 <
b11100 ~
b11100 !"
b110000 N
0$
1,
#440
0,
#445
0;
b1010 ?
b1010 C
b1010 E
b1010 M
b1010 D
1k
0m
1o
0q
b1010 z
b1010 !
b1010 3
b1010 @
b1010 H
b1010 K
b1010 e
b1010 h
b1010 v
1x
1w
1d
0L
b10 A
1F
0t
b1011010100000 8
b1011010100000 O
0P
0V
b110001 N
1$
0c
b10 %
b10 6
b10 J
b10 R
1a
b1000100010 (
b1000100010 9
b1000100010 u
b1000100010 {
b100010 #
b100010 5
b100010 Q
b100010 ""
b11101 *
b11101 <
b11101 ~
b11101 !"
1,
#450
0,
#455
1k
0m
1o
0q
b1010 !
b1010 3
b1010 @
b1010 H
b1010 K
b1010 e
b1010 h
b1010 v
0x
0w
0d
1L
b0 A
0F
1b
1V
bx z
1t
b1000000001000 8
b1000000001000 O
1P
b1010 )
b1010 :
b1010 B
b1010 G
b1001100011 (
b1001100011 9
b1001100011 u
b1001100011 {
b1100011 #
b1100011 5
b1100011 Q
b1100011 ""
b11110 *
b11110 <
b11110 ~
b11110 !"
b110000 N
0$
1,
#460
0,
#465
0;
b1 ?
b1 C
b1 E
b1 M
b1 D
0k
0m
0o
1q
b1 z
b1 !
b1 3
b1 @
b1 H
b1 K
b1 e
b1 h
b1 v
1x
1w
1d
0L
b10 A
1F
0t
b1011010100000 8
b1011010100000 O
0P
1Z
0V
b110001 N
1$
b11 %
b11 6
b11 J
b11 R
1c
b1100110011 (
b1100110011 9
b1100110011 u
b1100110011 {
b110011 #
b110011 5
b110011 Q
b110011 ""
b11111 *
b11111 <
b11111 ~
b11111 !"
1,
#470
0,
#475
0k
0m
0o
1q
b1 !
b1 3
b1 @
b1 H
b1 K
b1 e
b1 h
b1 v
0x
0w
0d
1L
b0 A
0F
0b
1\
0Z
0X
1V
bx z
1t
b1000000001000 8
b1000000001000 O
1P
b1 )
b1 :
b1 B
b1 G
b1101001010 (
b1101001010 9
b1101001010 u
b1101001010 {
b1001010 #
b1001010 5
b1001010 Q
b1001010 ""
b100000 *
b100000 <
b100000 ~
b100000 !"
b110000 N
0$
1,
#476
b111100000 2
#480
0,
#485
1k
1o
0q
0;
b1010 ?
b1010 C
b1010 E
b1010 M
b1010 D
b1010 !
b1010 3
b1010 @
b1010 H
b1010 K
b1010 e
b1010 h
b1010 v
1d
0L
b10 A
1F
1I
0}
0t
0P
b11010000010 8
b11010000010 O
0\
1Z
1X
1T
1$
0c
b1010 %
b1010 6
b1010 J
b1010 R
1]
b100001 N
b100 &
b100 7
b100 S
0Y
b101011110010 (
b101011110010 9
b101011110010 u
b101011110010 {
b11110010 #
b11110010 5
b11110010 Q
b11110010 ""
b100001 *
b100001 <
b100001 ~
b100001 !"
1,
#490
0,
#495
b1010 !
b1010 3
b1010 @
b1010 H
b1010 K
b1010 e
b1010 h
b1010 v
0d
1L
b0 A
0F
0I
1}
1t
b1000000001000 8
b1000000001000 O
1P
b1010 )
b1010 :
b1010 B
b1010 G
b100000 N
0$
1,
#500
0,
#505
1k
0m
1o
0q
b1010 z
b1010 !
b1010 3
b1010 @
b1010 H
b1010 K
b1010 e
b1010 h
b1010 v
b101 ?
b101 C
b101 E
b101 M
b101 D
1x
1w
1d
0L
b100 A
1F
0t
0P
b1011100100000 8
b1011100100000 O
0Z
0V
0T
1$
b10 %
b10 6
b10 J
b10 R
0]
1[
1Y
b1111001 N
b1111 &
b1111 7
b1111 S
1U
b1000100010 (
b1000100010 9
b1000100010 u
b1000100010 {
b100010 #
b100010 5
b100010 Q
b100010 ""
b100010 *
b100010 <
b100010 ~
b100010 !"
1,
#510
0,
#515
0k
1m
0o
1q
b101 !
b101 3
b101 @
b101 H
b101 K
b101 e
b101 h
b101 v
0x
0w
0d
1L
b0 A
0F
b101 ?
b101 C
b101 E
b101 M
b101 D
1b
1^
1\
0X
1V
bx z
1t
b1000000001000 8
b1000000001000 O
1P
b101 )
b101 :
b101 B
b101 G
b1001001111 (
b1001001111 9
b1001001111 u
b1001001111 {
b1001111 #
b1001111 5
b1001111 Q
b1001111 ""
b100011 *
b100011 <
b100011 ~
b100011 !"
b1111000 N
0$
1,
#516
b1000001000 2
#520
0,
